{
    "title" : "The ls command",
    "shortdesc" : "ls stands for list. It is the command used to display all the files inside a directory.",
    "sentence" : "try using this command in the terminal and see what happens.",
    "usage": "ls",
    "result": "You should now see that there is only one file called README inside your home directory. <br> The ls commands also has arguments, for example this will show you hidden files inside your directory <pre>ls -a</pre> In UNIX, hidden files have the dot (.) prefix. Alternatively you can use the -l option to indicate a long format <pre>ls -l</pre>"
}
