{
    "title" : "The cd and pwd commands",
    "shortdesc" : "One of the most used commands in UNIX, cd stands for change directory. Using cd one can move around in the filesystem. The cd command goes hand in hand with another command called pwd, which stands for 'print working directory'.",
    "sentence" : "try using this comand in the terminal window on the left to go to your home directory.",
    "usage": "cd /home/tutorialuser",
    "result": "You should now see a change in the left prompt. it went from / to ~. Try using the pwd command now to see what directory you are inside of. <pre>pwd</pre> </br> Extra reading material <a href='https://en.wikipedia.org/wiki/Cd_(command)' target='_blank'>can be found here</a>. and <a href='https://en.wikipedia.org/wiki/Pwd' target='_blank'>here</a>."
}
